{"content":[{"id":13482,"name":"Report-16-33-42","createdAt":"2024-09-06T16:33:45.089Z","updatedAt":"2024-09-06T16:33:45.135Z","createdByUserEmail":"bbucqj@group2.ru","updatedByUserEmail":"bbucqj@group2.ru","testIdSet":[18696],"labelSet":[]},{"id":13481,"name":"Report-16-32-26","createdAt":"2024-09-06T16:32:28.764Z","updatedAt":"2024-09-06T16:32:28.822Z","createdByUserEmail":"bbucqj@group2.ru","updatedByUserEmail":"bbucqj@group2.ru","testIdSet":[18696],"labelSet":[]},{"id":13480,"name":"Report-16-29-56","createdAt":"2024-09-06T16:29:58.969Z","updatedAt":"2024-09-06T16:29:59.035Z","createdByUserEmail":"bbucqj@group2.ru","updatedByUserEmail":"bbucqj@group2.ru","testIdSet":[18696],"labelSet":[]},{"id":13479,"name":"Report-16-28-40","createdAt":"2024-09-06T16:28:43.495Z","updatedAt":"2024-09-06T16:28:43.568Z","createdByUserEmail":"bbucqj@group2.ru","updatedByUserEmail":"bbucqj@group2.ru","testIdSet":[18696],"labelSet":[]},{"id":13478,"name":"Report-16-26-11","createdAt":"2024-09-06T16:26:13.633Z","updatedAt":"2024-09-06T16:26:13.693Z","createdByUserEmail":"bbucqj@group2.ru","updatedByUserEmail":"bbucqj@group2.ru","testIdSet":[18696],"labelSet":[]},{"id":13477,"name":"Report-16-24-56","createdAt":"2024-09-06T16:24:58.879Z","updatedAt":"2024-09-06T16:24:58.929Z","createdByUserEmail":"bbucqj@group2.ru","updatedByUserEmail":"bbucqj@group2.ru","testIdSet":[18696],"labelSet":[]},{"id":13476,"name":"Report-16-22-26","createdAt":"2024-09-06T16:22:28.927Z","updatedAt":"2024-09-06T16:22:28.987Z","createdByUserEmail":"bbucqj@group2.ru","updatedByUserEmail":"bbucqj@group2.ru","testIdSet":[18696],"labelSet":[]},{"id":13475,"name":"Report-16-21-10","createdAt":"2024-09-06T16:21:13.375Z","updatedAt":"2024-09-06T16:21:13.428Z","createdByUserEmail":"bbucqj@group2.ru","updatedByUserEmail":"bbucqj@group2.ru","testIdSet":[18696],"labelSet":[]},{"id":13474,"name":"Report-16-18-41","createdAt":"2024-09-06T16:18:44.363Z","updatedAt":"2024-09-06T16:18:44.414Z","createdByUserEmail":"bbucqj@group2.ru","updatedByUserEmail":"bbucqj@group2.ru","testIdSet":[18696],"labelSet":[]}],"pageable":{"sort":{"sorted":true,"unsorted":false,"empty":false},"pageNumber":0,"pageSize":9,"offset":0,"paged":true,"unpaged":false},"last":false,"totalPages":82,"totalElements":730,"first":true,"sort":{"sorted":true,"unsorted":false,"empty":false},"numberOfElements":9,"size":9,"number":0,"empty":false}