{"content":[{"id":25378,"projectName":"untitled_test_16:07","settingsId":null,"comment":"","lastModified":"2024-08-29T18:12:04","contentFormat":"yaml","contentModelVersion":null,"labelSet":[],"testType":"STABLE","requestCount":2,"totalDuration":720,"version":[{"id":25933,"projectId":25378,"settingsId":null,"createdOn":"2024-08-29T18:12:04.035Z","location":"boomq/teams/13/projects/25378/v_25933.yaml","comment":"","contentFormat":"yaml","contentModelVersion":"2.0.0","testType":"STABLE","requestCount":2,"totalDuration":720,"versionNumber":1}]},{"id":25350,"projectName":"TestFromJMX_19-55-09","settingsId":null,"comment":"","lastModified":"2024-08-29T16:55:14","contentFormat":"yaml","contentModelVersion":null,"labelSet":[],"testType":"OWN_JMX","requestCount":0,"totalDuration":3610,"version":[{"id":25890,"projectId":25350,"settingsId":null,"createdOn":"2024-08-29T16:55:14.726Z","location":"boomq/teams/13/projects/25350/v_25890.yaml","comment":null,"contentFormat":"yaml","contentModelVersion":"1.0.0","testType":"OWN_JMX","requestCount":2,"totalDuration":3610,"versionNumber":1},{"id":25891,"projectId":25350,"settingsId":null,"createdOn":"2024-08-29T16:55:15.170Z","location":"boomq/teams/13/projects/25350/v_25891.yaml","comment":"","contentFormat":"yaml","contentModelVersion":"1.0.0","testType":"OWN_JMX","requestCount":0,"totalDuration":3610,"versionNumber":2},{"id":25939,"projectId":25350,"settingsId":null,"createdOn":"2024-08-29T18:20:04.221Z","location":"boomq/teams/13/projects/25350/v_25939.yaml","comment":"","contentFormat":"yaml","contentModelVersion":"1.0.0","testType":"OWN_JMX","requestCount":0,"totalDuration":3610,"versionNumber":3},{"id":25940,"projectId":25350,"settingsId":null,"createdOn":"2024-08-29T18:20:28.853Z","location":"boomq/teams/13/projects/25350/v_25940.yaml","comment":"","contentFormat":"yaml","contentModelVersion":"1.0.0","testType":"OWN_JMX","requestCount":0,"totalDuration":3610,"versionNumber":4}]},{"id":25349,"projectName":"testInApp_19-55-02","settingsId":null,"comment":"","lastModified":"2024-08-29T16:55:08","contentFormat":"yaml","contentModelVersion":null,"labelSet":[],"testType":"STABLE","requestCount":2,"totalDuration":3720,"version":[{"id":25889,"projectId":25349,"settingsId":null,"createdOn":"2024-08-29T16:55:08.150Z","location":"boomq/teams/13/projects/25349/v_25889.yaml","comment":"","contentFormat":"yaml","contentModelVersion":"2.0.0","testType":"STABLE","requestCount":2,"totalDuration":3720,"versionNumber":1}]},{"id":25348,"projectName":"TestFromJMX_19-54-55","settingsId":null,"comment":"","lastModified":"2024-08-29T16:55:01","contentFormat":"yaml","contentModelVersion":null,"labelSet":[],"testType":"OWN_JMX","requestCount":0,"totalDuration":3610,"version":[{"id":25887,"projectId":25348,"settingsId":null,"createdOn":"2024-08-29T16:55:01.066Z","location":"boomq/teams/13/projects/25348/v_25887.yaml","comment":null,"contentFormat":"yaml","contentModelVersion":"1.0.0","testType":"OWN_JMX","requestCount":2,"totalDuration":3610,"versionNumber":1},{"id":25888,"projectId":25348,"settingsId":null,"createdOn":"2024-08-29T16:55:01.463Z","location":"boomq/teams/13/projects/25348/v_25888.yaml","comment":"","contentFormat":"yaml","contentModelVersion":"1.0.0","testType":"OWN_JMX","requestCount":0,"totalDuration":3610,"versionNumber":2}]},{"id":25347,"projectName":"TestFromJMX_19-53-10","settingsId":null,"comment":"","lastModified":"2024-08-29T16:53:16","contentFormat":"yaml","contentModelVersion":null,"labelSet":[],"testType":"OWN_JMX","requestCount":0,"totalDuration":3610,"version":[{"id":25885,"projectId":25347,"settingsId":null,"createdOn":"2024-08-29T16:53:16.481Z","location":"boomq/teams/13/projects/25347/v_25885.yaml","comment":null,"contentFormat":"yaml","contentModelVersion":"1.0.0","testType":"OWN_JMX","requestCount":2,"totalDuration":3610,"versionNumber":1},{"id":25886,"projectId":25347,"settingsId":null,"createdOn":"2024-08-29T16:53:42.678Z","location":"boomq/teams/13/projects/25347/v_25886.yaml","comment":"","contentFormat":"yaml","contentModelVersion":"1.0.0","testType":"OWN_JMX","requestCount":0,"totalDuration":3610,"versionNumber":2}]},{"id":25346,"projectName":"TestFromJMX_19-52-38","settingsId":null,"comment":"","lastModified":"2024-08-29T16:52:44","contentFormat":"yaml","contentModelVersion":null,"labelSet":[],"testType":"OWN_JMX","requestCount":0,"totalDuration":3610,"version":[{"id":25883,"projectId":25346,"settingsId":null,"createdOn":"2024-08-29T16:52:44.344Z","location":"boomq/teams/13/projects/25346/v_25883.yaml","comment":null,"contentFormat":"yaml","contentModelVersion":"1.0.0","testType":"OWN_JMX","requestCount":2,"totalDuration":3610,"versionNumber":1},{"id":25884,"projectId":25346,"settingsId":null,"createdOn":"2024-08-29T16:52:44.764Z","location":"boomq/teams/13/projects/25346/v_25884.yaml","comment":"","contentFormat":"yaml","contentModelVersion":"1.0.0","testType":"OWN_JMX","requestCount":0,"totalDuration":3610,"versionNumber":2}]},{"id":25345,"projectName":"TestFromJMX_19-52-01","settingsId":null,"comment":null,"lastModified":"2024-08-29T16:52:07","contentFormat":"yaml","contentModelVersion":null,"labelSet":[],"testType":"OWN_JMX","requestCount":2,"totalDuration":3610,"version":[{"id":25882,"projectId":25345,"settingsId":null,"createdOn":"2024-08-29T16:52:07.617Z","location":"boomq/teams/13/projects/25345/v_25882.yaml","comment":null,"contentFormat":"yaml","contentModelVersion":"1.0.0","testType":"OWN_JMX","requestCount":2,"totalDuration":3610,"versionNumber":1}]},{"id":25344,"projectName":"TestFromJMX_19-50-46","settingsId":null,"comment":null,"lastModified":"2024-08-29T16:50:51","contentFormat":"yaml","contentModelVersion":null,"labelSet":[],"testType":"OWN_JMX","requestCount":2,"totalDuration":3610,"version":[{"id":25881,"projectId":25344,"settingsId":null,"createdOn":"2024-08-29T16:50:51.838Z","location":"boomq/teams/13/projects/25344/v_25881.yaml","comment":null,"contentFormat":"yaml","contentModelVersion":"1.0.0","testType":"OWN_JMX","requestCount":2,"totalDuration":3610,"versionNumber":1}]},{"id":25337,"projectName":"untitled_test_19:34","settingsId":null,"comment":"","lastModified":"2024-08-29T16:34:24","contentFormat":"yaml","contentModelVersion":null,"labelSet":[],"testType":"OWN_JMX","requestCount":0,"totalDuration":3610,"version":[{"id":25863,"projectId":25337,"settingsId":null,"createdOn":"2024-08-29T16:34:24.768Z","location":"boomq/teams/13/projects/25337/v_25863.yaml","comment":null,"contentFormat":"yaml","contentModelVersion":"1.0.0","testType":"OWN_JMX","requestCount":2,"totalDuration":3610,"versionNumber":1},{"id":25864,"projectId":25337,"settingsId":null,"createdOn":"2024-08-29T16:34:47.549Z","location":"boomq/teams/13/projects/25337/v_25864.yaml","comment":"","contentFormat":"yaml","contentModelVersion":"1.0.0","testType":"OWN_JMX","requestCount":0,"totalDuration":3610,"versionNumber":2}]}],"pageable":{"sort":{"sorted":true,"unsorted":false,"empty":false},"offset":0,"pageNumber":0,"pageSize":9,"paged":true,"unpaged":false},"totalElements":68,"totalPages":8,"last":false,"first":true,"size":9,"number":0,"sort":{"sorted":true,"unsorted":false,"empty":false},"numberOfElements":9,"empty":false}