{"content":[{"id":18686,"testProjectId":25345,"testProjectVersionId":25882,"testMode":"TEST","state":"TEST_PLANS_CREATED","displayState":"INITIALIZATION","userId":1875,"userEmail":"ko_lesya@mail.ru","teamId":13,"createDate":"2024-08-29T20:19:28.890Z","startDate":null,"endDate":null,"comment":"Amazing","labelSet":[],"testProject":{"id":25345,"projectName":"TestFromJMX_19-52-01","settingsId":null,"comment":null,"lastModified":null,"contentFormat":null,"contentModelVersion":null,"labelSet":null,"testType":null,"requestCount":null,"totalDuration":null,"version":null},"testProjectVersion":{"id":25882,"projectId":25345,"settingsId":null,"createdOn":1724950327.617000000,"location":"boomq/teams/13/projects/25345/v_25882.yaml","comment":null,"contentFormat":"yaml","contentModelVersion":"1.0.0","testType":"OWN_JMX","requestCount":2,"totalDuration":3610,"versionNumber":1},"testResult":{"testId":18686,"usersChartSvg":null,"testResultSlaState":"PROCESSING","slaResults":null,"testResultFilesState":"PROCESSING"},"testError":null},{"id":18685,"testProjectId":25345,"testProjectVersionId":25882,"testMode":"TEST","state":"RUNNING","displayState":"RUNNING","userId":1875,"userEmail":"ko_lesya@mail.ru","teamId":13,"createDate":"2024-08-29T20:18:54.842Z","startDate":"2024-08-29T20:18:55.429Z","endDate":"2024-08-29T21:19:05.429Z","comment":"Amazing","labelSet":[],"testProject":{"id":25345,"projectName":"TestFromJMX_19-52-01","settingsId":null,"comment":null,"lastModified":null,"contentFormat":null,"contentModelVersion":null,"labelSet":null,"testType":null,"requestCount":null,"totalDuration":null,"version":null},"testProjectVersion":{"id":25882,"projectId":25345,"settingsId":null,"createdOn":1724950327.617000000,"location":"boomq/teams/13/projects/25345/v_25882.yaml","comment":null,"contentFormat":"yaml","contentModelVersion":"1.0.0","testType":"OWN_JMX","requestCount":2,"totalDuration":3610,"versionNumber":1},"testResult":{"testId":18685,"usersChartSvg":null,"testResultSlaState":"PROCESSING","slaResults":null,"testResultFilesState":"PROCESSING"},"testError":null},{"id":18684,"testProjectId":25345,"testProjectVersionId":25882,"testMode":"TEST","state":"RUNNING","displayState":"RUNNING","userId":1875,"userEmail":"ko_lesya@mail.ru","teamId":13,"createDate":"2024-08-29T20:15:51.231Z","startDate":"2024-08-29T20:15:51.702Z","endDate":"2024-08-29T21:16:01.702Z","comment":"Amazing","labelSet":[],"testProject":{"id":25345,"projectName":"TestFromJMX_19-52-01","settingsId":null,"comment":null,"lastModified":null,"contentFormat":null,"contentModelVersion":null,"labelSet":null,"testType":null,"requestCount":null,"totalDuration":null,"version":null},"testProjectVersion":{"id":25882,"projectId":25345,"settingsId":null,"createdOn":1724950327.617000000,"location":"boomq/teams/13/projects/25345/v_25882.yaml","comment":null,"contentFormat":"yaml","contentModelVersion":"1.0.0","testType":"OWN_JMX","requestCount":2,"totalDuration":3610,"versionNumber":1},"testResult":{"testId":18684,"usersChartSvg":null,"testResultSlaState":"PROCESSING","slaResults":null,"testResultFilesState":"PROCESSING"},"testError":null},{"id":18683,"testProjectId":25345,"testProjectVersionId":25882,"testMode":"TEST","state":"CANCELED","displayState":"CANCELED","userId":1875,"userEmail":"ko_lesya@mail.ru","teamId":13,"createDate":"2024-08-29T19:49:34.008Z","startDate":"2024-08-29T19:50:09.939Z","endDate":"2024-08-29T19:50:23.201Z","comment":"Amazing","labelSet":[],"testProject":{"id":25345,"projectName":"TestFromJMX_19-52-01","settingsId":null,"comment":null,"lastModified":null,"contentFormat":null,"contentModelVersion":null,"labelSet":null,"testType":null,"requestCount":null,"totalDuration":null,"version":null},"testProjectVersion":{"id":25882,"projectId":25345,"settingsId":null,"createdOn":1724950327.617000000,"location":"boomq/teams/13/projects/25345/v_25882.yaml","comment":null,"contentFormat":"yaml","contentModelVersion":"1.0.0","testType":"OWN_JMX","requestCount":2,"totalDuration":3610,"versionNumber":1},"testResult":{"testId":18683,"usersChartSvg":"<svg xmlns=\"http://www.w3.org/2000/svg\" xmlns:xlink=\"http://www.w3.org/1999/xlink\" xmlns:jfreesvg=\"http://www.jfree.org/jfreesvg/svg\" width=\"150\" height=\"75\" text-rendering=\"auto\" shape-rendering=\"auto\">\n<defs><clipPath id=\"_890716870892489clip-0\"><path d=\"M 0 0 L 150 0 L 150 75 L 0 75 L 0 0 Z \"/></clipPath>\n<clipPath id=\"_890716870892489clip-1\"><path d=\"M 12 8 L 12 53 L 138 53 L 138 8 Z \"/></clipPath>\n</defs>\n<rect x=\"0\" y=\"0\" width=\"150\" height=\"75\" style=\"fill: rgb(255,255,255); fill-opacity: 1.0\" clip-path=\"url(#_890716870892489clip-0)\"/><rect x=\"12\" y=\"8\" width=\"126\" height=\"45\" style=\"fill: rgb(255,255,255); fill-opacity: 1.0\" clip-path=\"url(#_890716870892489clip-0)\"/><g ><text x=\"-6\" y=\"69.11\" style=\"fill: rgb(0,0,0); fill-opacity: 1.0; font-family: sans-serif; font-size: 8px;\" clip-path=\"url(#_890716870892489clip-0)\">00:00:00</text></g><g ><text x=\"108.55\" y=\"69.11\" style=\"fill: rgb(0,0,0); fill-opacity: 1.0; font-family: sans-serif; font-size: 8px;\" clip-path=\"url(#_890716870892489clip-0)\">00:00:20</text></g><g style=\"stroke-width: 2.0;stroke: rgb(73,137,214);stroke-opacity: 1.0;stroke-linecap: square;shape-rendering:geometricPrecision;; fill: none\" clip-path=\"url(#_890716870892489clip-1)\"><path d=\"M 12 30.5 L 69.27 30.5 L 126.55 30.5\"/></g></svg>","testResultSlaState":"UNDEFINED","slaResults":null,"testResultFilesState":"FINISHED"},"testError":null},{"id":18682,"testProjectId":25345,"testProjectVersionId":25882,"testMode":"TEST","state":"CANCELED","displayState":"CANCELED","userId":1875,"userEmail":"ko_lesya@mail.ru","teamId":13,"createDate":"2024-08-29T19:47:01.889Z","startDate":"2024-08-29T19:47:37.689Z","endDate":"2024-08-29T19:50:31.000Z","comment":"Amazing","labelSet":[],"testProject":{"id":25345,"projectName":"TestFromJMX_19-52-01","settingsId":null,"comment":null,"lastModified":null,"contentFormat":null,"contentModelVersion":null,"labelSet":null,"testType":null,"requestCount":null,"totalDuration":null,"version":null},"testProjectVersion":{"id":25882,"projectId":25345,"settingsId":null,"createdOn":1724950327.617000000,"location":"boomq/teams/13/projects/25345/v_25882.yaml","comment":null,"contentFormat":"yaml","contentModelVersion":"1.0.0","testType":"OWN_JMX","requestCount":2,"totalDuration":3610,"versionNumber":1},"testResult":{"testId":18682,"usersChartSvg":"<svg xmlns=\"http://www.w3.org/2000/svg\" xmlns:xlink=\"http://www.w3.org/1999/xlink\" xmlns:jfreesvg=\"http://www.jfree.org/jfreesvg/svg\" width=\"150\" height=\"75\" text-rendering=\"auto\" shape-rendering=\"auto\">\n<defs><clipPath id=\"_890724680139454clip-0\"><path d=\"M 0 0 L 150 0 L 150 75 L 0 75 L 0 0 Z \"/></clipPath>\n<clipPath id=\"_890724680139454clip-1\"><path d=\"M 25 8 L 25 53 L 138 53 L 138 8 Z \"/></clipPath>\n</defs>\n<rect x=\"0\" y=\"0\" width=\"150\" height=\"75\" style=\"fill: rgb(255,255,255); fill-opacity: 1.0\" clip-path=\"url(#_890724680139454clip-0)\"/><rect x=\"25\" y=\"8\" width=\"113\" height=\"45\" style=\"fill: rgb(255,255,255); fill-opacity: 1.0\" clip-path=\"url(#_890724680139454clip-0)\"/><g ><text x=\"7\" y=\"69.11\" style=\"fill: rgb(0,0,0); fill-opacity: 1.0; font-family: sans-serif; font-size: 8px;\" clip-path=\"url(#_890724680139454clip-0)\">00:00:00</text></g><g ><text x=\"109.73\" y=\"69.11\" style=\"fill: rgb(0,0,0); fill-opacity: 1.0; font-family: sans-serif; font-size: 8px;\" clip-path=\"url(#_890724680139454clip-0)\">00:03:00</text></g><g ><text x=\"10\" y=\"56.11\" style=\"fill: rgb(0,0,0); fill-opacity: 1.0; font-family: sans-serif; font-size: 8px;\" clip-path=\"url(#_890724680139454clip-0)\">0</text></g><g ><text x=\"10\" y=\"13.26\" style=\"fill: rgb(0,0,0); fill-opacity: 1.0; font-family: sans-serif; font-size: 8px;\" clip-path=\"url(#_890724680139454clip-0)\">1</text></g><g style=\"stroke-width: 2.0;stroke: rgb(73,137,214);stroke-opacity: 1.0;stroke-linecap: square;shape-rendering:geometricPrecision;; fill: none\" clip-path=\"url(#_890724680139454clip-1)\"><path d=\"M 25 53 L 30.71 10.14 L 36.41 10.14 L 42.12 10.14 L 47.83 10.14 L 53.54 10.14 L 59.24 10.14 L 64.95 10.14 L 70.66 10.14 L 76.36 10.14 L 82.07 10.14 L 87.78 10.14 L 93.48 10.14 L 99.19 10.14 L 104.9 10.14 L 110.61 10.14 L 116.31 10.14 L 122.02 10.14 L 127.73 53\"/></g></svg>","testResultSlaState":"UNDEFINED","slaResults":null,"testResultFilesState":"FINISHED"},"testError":null},{"id":18681,"testProjectId":25345,"testProjectVersionId":25882,"testMode":"TEST","state":"CANCELED","displayState":"CANCELED","userId":1875,"userEmail":"ko_lesya@mail.ru","teamId":13,"createDate":"2024-08-29T19:46:35.847Z","startDate":"2024-08-29T19:47:11.665Z","endDate":"2024-08-29T19:50:28.915Z","comment":"Amazing","labelSet":[],"testProject":{"id":25345,"projectName":"TestFromJMX_19-52-01","settingsId":null,"comment":null,"lastModified":null,"contentFormat":null,"contentModelVersion":null,"labelSet":null,"testType":null,"requestCount":null,"totalDuration":null,"version":null},"testProjectVersion":{"id":25882,"projectId":25345,"settingsId":null,"createdOn":1724950327.617000000,"location":"boomq/teams/13/projects/25345/v_25882.yaml","comment":null,"contentFormat":"yaml","contentModelVersion":"1.0.0","testType":"OWN_JMX","requestCount":2,"totalDuration":3610,"versionNumber":1},"testResult":{"testId":18681,"usersChartSvg":"<svg xmlns=\"http://www.w3.org/2000/svg\" xmlns:xlink=\"http://www.w3.org/1999/xlink\" xmlns:jfreesvg=\"http://www.jfree.org/jfreesvg/svg\" width=\"150\" height=\"75\" text-rendering=\"auto\" shape-rendering=\"auto\">\n<defs><clipPath id=\"_890722568713527clip-0\"><path d=\"M 0 0 L 150 0 L 150 75 L 0 75 L 0 0 Z \"/></clipPath>\n<clipPath id=\"_890722568713527clip-1\"><path d=\"M 25 8 L 25 53 L 138 53 L 138 8 Z \"/></clipPath>\n</defs>\n<rect x=\"0\" y=\"0\" width=\"150\" height=\"75\" style=\"fill: rgb(255,255,255); fill-opacity: 1.0\" clip-path=\"url(#_890722568713527clip-0)\"/><rect x=\"25\" y=\"8\" width=\"113\" height=\"45\" style=\"fill: rgb(255,255,255); fill-opacity: 1.0\" clip-path=\"url(#_890722568713527clip-0)\"/><g ><text x=\"7\" y=\"69.11\" style=\"fill: rgb(0,0,0); fill-opacity: 1.0; font-family: sans-serif; font-size: 8px;\" clip-path=\"url(#_890722568713527clip-0)\">00:00:00</text></g><g ><text x=\"109.73\" y=\"69.11\" style=\"fill: rgb(0,0,0); fill-opacity: 1.0; font-family: sans-serif; font-size: 8px;\" clip-path=\"url(#_890722568713527clip-0)\">00:03:10</text></g><g ><text x=\"10\" y=\"56.11\" style=\"fill: rgb(0,0,0); fill-opacity: 1.0; font-family: sans-serif; font-size: 8px;\" clip-path=\"url(#_890722568713527clip-0)\">0</text></g><g ><text x=\"10\" y=\"13.26\" style=\"fill: rgb(0,0,0); fill-opacity: 1.0; font-family: sans-serif; font-size: 8px;\" clip-path=\"url(#_890722568713527clip-0)\">1</text></g><g style=\"stroke-width: 2.0;stroke: rgb(73,137,214);stroke-opacity: 1.0;stroke-linecap: square;shape-rendering:geometricPrecision;; fill: none\" clip-path=\"url(#_890722568713527clip-1)\"><path d=\"M 25 53 L 30.41 10.14 L 35.81 10.14 L 41.22 10.14 L 46.63 10.14 L 52.03 10.14 L 57.44 10.14 L 62.85 10.14 L 68.25 10.14 L 73.66 10.14 L 79.07 10.14 L 84.47 10.14 L 89.88 10.14 L 95.29 10.14 L 100.69 10.14 L 106.1 10.14 L 111.51 10.14 L 116.91 10.14 L 122.32 10.14 L 127.73 53\"/></g></svg>","testResultSlaState":"UNDEFINED","slaResults":null,"testResultFilesState":"FINISHED"},"testError":null},{"id":18680,"testProjectId":25345,"testProjectVersionId":25882,"testMode":"TEST","state":"CANCELED","displayState":"CANCELED","userId":1875,"userEmail":"ko_lesya@mail.ru","teamId":13,"createDate":"2024-08-29T19:45:34.700Z","startDate":"2024-08-29T19:46:10.548Z","endDate":"2024-08-29T19:46:23.822Z","comment":"Amazing","labelSet":[],"testProject":{"id":25345,"projectName":"TestFromJMX_19-52-01","settingsId":null,"comment":null,"lastModified":null,"contentFormat":null,"contentModelVersion":null,"labelSet":null,"testType":null,"requestCount":null,"totalDuration":null,"version":null},"testProjectVersion":{"id":25882,"projectId":25345,"settingsId":null,"createdOn":1724950327.617000000,"location":"boomq/teams/13/projects/25345/v_25882.yaml","comment":null,"contentFormat":"yaml","contentModelVersion":"1.0.0","testType":"OWN_JMX","requestCount":2,"totalDuration":3610,"versionNumber":1},"testResult":{"testId":18680,"usersChartSvg":"<svg xmlns=\"http://www.w3.org/2000/svg\" xmlns:xlink=\"http://www.w3.org/1999/xlink\" xmlns:jfreesvg=\"http://www.jfree.org/jfreesvg/svg\" width=\"150\" height=\"75\" text-rendering=\"auto\" shape-rendering=\"auto\">\n<defs><clipPath id=\"_890477495583957clip-0\"><path d=\"M 0 0 L 150 0 L 150 75 L 0 75 L 0 0 Z \"/></clipPath>\n<clipPath id=\"_890477495583957clip-1\"><path d=\"M 12 8 L 12 53 L 138 53 L 138 8 Z \"/></clipPath>\n</defs>\n<rect x=\"0\" y=\"0\" width=\"150\" height=\"75\" style=\"fill: rgb(255,255,255); fill-opacity: 1.0\" clip-path=\"url(#_890477495583957clip-0)\"/><rect x=\"12\" y=\"8\" width=\"126\" height=\"45\" style=\"fill: rgb(255,255,255); fill-opacity: 1.0\" clip-path=\"url(#_890477495583957clip-0)\"/><g ><text x=\"-6\" y=\"69.11\" style=\"fill: rgb(0,0,0); fill-opacity: 1.0; font-family: sans-serif; font-size: 8px;\" clip-path=\"url(#_890477495583957clip-0)\">00:00:00</text></g><g ><text x=\"108.55\" y=\"69.11\" style=\"fill: rgb(0,0,0); fill-opacity: 1.0; font-family: sans-serif; font-size: 8px;\" clip-path=\"url(#_890477495583957clip-0)\">00:00:10</text></g><g style=\"stroke-width: 2.0;stroke: rgb(73,137,214);stroke-opacity: 1.0;stroke-linecap: square;shape-rendering:geometricPrecision;; fill: none\" clip-path=\"url(#_890477495583957clip-1)\"><path d=\"M 12 30.5 L 126.55 30.5\"/></g></svg>","testResultSlaState":"UNDEFINED","slaResults":null,"testResultFilesState":"FINISHED"},"testError":null}],"pageable":{"sort":{"unsorted":false,"sorted":true,"empty":false},"offset":0,"pageNumber":0,"pageSize":7,"paged":true,"unpaged":false},"totalElements":164,"totalPages":24,"last":false,"first":true,"size":7,"number":0,"sort":{"unsorted":false,"sorted":true,"empty":false},"numberOfElements":7,"empty":false}