{"content":[{"id":25118,"projectName":"untitled_test_13:54","settingsId":null,"comment":"","lastModified":"2024-08-28T10:57:13","contentFormat":"yaml","contentModelVersion":null,"labelSet":[],"testType":"OWN_JMX","requestCount":0,"totalDuration":3610,"version":[{"id":25324,"projectId":25118,"settingsId":null,"createdOn":"2024-08-28T10:57:13.685Z","location":"boomq/teams/13/projects/25118/v_25324.yaml","comment":null,"contentFormat":"yaml","contentModelVersion":"1.0.0","testType":"OWN_JMX","requestCount":0,"totalDuration":0,"versionNumber":1},{"id":25325,"projectId":25118,"settingsId":null,"createdOn":"2024-08-28T10:59:17.625Z","location":"boomq/teams/13/projects/25118/v_25325.yaml","comment":"","contentFormat":"yaml","contentModelVersion":"1.0.0","testType":"OWN_JMX","requestCount":0,"totalDuration":3610,"versionNumber":2}]},{"id":25117,"projectName":"untitled_test_13:55","settingsId":null,"comment":null,"lastModified":"2024-08-28T10:56:59","contentFormat":"yaml","contentModelVersion":null,"labelSet":[],"testType":"OWN_JMX","requestCount":0,"totalDuration":0,"version":[{"id":25323,"projectId":25117,"settingsId":null,"createdOn":"2024-08-28T10:56:59.904Z","location":"boomq/teams/13/projects/25117/v_25323.yaml","comment":null,"contentFormat":"yaml","contentModelVersion":"1.0.0","testType":"OWN_JMX","requestCount":0,"totalDuration":0,"versionNumber":1}]},{"id":25114,"projectName":"test_00-33-29","settingsId":null,"comment":"","lastModified":"2024-08-27T21:33:31","contentFormat":"yaml","contentModelVersion":null,"labelSet":[],"testType":"STABLE","requestCount":2,"totalDuration":720,"version":[{"id":25315,"projectId":25114,"settingsId":null,"createdOn":"2024-08-27T21:33:31.989Z","location":"boomq/teams/13/projects/25114/v_25315.yaml","comment":"","contentFormat":"yaml","contentModelVersion":"2.0.0","testType":"STABLE","requestCount":2,"totalDuration":720,"versionNumber":1}]},{"id":25113,"projectName":"test_00-28-23","settingsId":null,"comment":"","lastModified":"2024-08-27T21:28:25","contentFormat":"yaml","contentModelVersion":null,"labelSet":[],"testType":"STABLE","requestCount":2,"totalDuration":720,"version":[{"id":25314,"projectId":25113,"settingsId":null,"createdOn":"2024-08-27T21:28:25.707Z","location":"boomq/teams/13/projects/25113/v_25314.yaml","comment":"","contentFormat":"yaml","contentModelVersion":"2.0.0","testType":"STABLE","requestCount":2,"totalDuration":720,"versionNumber":1}]},{"id":25112,"projectName":"test_00-21-17","settingsId":null,"comment":"","lastModified":"2024-08-27T21:21:20","contentFormat":"yaml","contentModelVersion":null,"labelSet":[],"testType":"STABLE","requestCount":2,"totalDuration":720,"version":[{"id":25313,"projectId":25112,"settingsId":null,"createdOn":"2024-08-27T21:21:20.327Z","location":"boomq/teams/13/projects/25112/v_25313.yaml","comment":"","contentFormat":"yaml","contentModelVersion":"2.0.0","testType":"STABLE","requestCount":2,"totalDuration":720,"versionNumber":1}]},{"id":25111,"projectName":"test_00-20-20","settingsId":null,"comment":"","lastModified":"2024-08-27T21:20:22","contentFormat":"yaml","contentModelVersion":null,"labelSet":[],"testType":"STABLE","requestCount":2,"totalDuration":720,"version":[{"id":25312,"projectId":25111,"settingsId":null,"createdOn":"2024-08-27T21:20:22.810Z","location":"boomq/teams/13/projects/25111/v_25312.yaml","comment":"","contentFormat":"yaml","contentModelVersion":"2.0.0","testType":"STABLE","requestCount":2,"totalDuration":720,"versionNumber":1}]},{"id":25110,"projectName":"test_00-11-36","settingsId":null,"comment":"","lastModified":"2024-08-27T21:11:39","contentFormat":"yaml","contentModelVersion":null,"labelSet":[],"testType":"STABLE","requestCount":2,"totalDuration":720,"version":[{"id":25311,"projectId":25110,"settingsId":null,"createdOn":"2024-08-27T21:11:39.311Z","location":"boomq/teams/13/projects/25110/v_25311.yaml","comment":"","contentFormat":"yaml","contentModelVersion":"2.0.0","testType":"STABLE","requestCount":2,"totalDuration":720,"versionNumber":1}]},{"id":15045,"projectName":"test_00-08-19","settingsId":null,"comment":"","lastModified":"2024-08-27T21:08:22","contentFormat":"yaml","contentModelVersion":null,"labelSet":[],"testType":"STABLE","requestCount":2,"totalDuration":420,"version":[{"id":15078,"projectId":15045,"settingsId":null,"createdOn":"2024-08-26T13:11:53.613Z","location":"boomq/teams/13/projects/15045/v_15078.yaml","comment":"","contentFormat":"yaml","contentModelVersion":"2.0.0","testType":"STABLE","requestCount":2,"totalDuration":720,"versionNumber":1},{"id":15079,"projectId":15045,"settingsId":null,"createdOn":"2024-08-26T13:13:30.592Z","location":"boomq/teams/13/projects/15045/v_15079.yaml","comment":"","contentFormat":"yaml","contentModelVersion":"2.0.0","testType":"STABLE","requestCount":2,"totalDuration":420,"versionNumber":2},{"id":15111,"projectId":15045,"settingsId":null,"createdOn":"2024-08-26T22:26:29.857Z","location":"boomq/teams/13/projects/15045/v_15111.yaml","comment":"","contentFormat":"yaml","contentModelVersion":"2.0.0","testType":"STABLE","requestCount":2,"totalDuration":420,"versionNumber":3},{"id":15147,"projectId":15045,"settingsId":null,"createdOn":"2024-08-27T08:20:01.450Z","location":"boomq/teams/13/projects/15045/v_15147.yaml","comment":"","contentFormat":"yaml","contentModelVersion":"2.0.0","testType":"STABLE","requestCount":2,"totalDuration":420,"versionNumber":4},{"id":15149,"projectId":15045,"settingsId":null,"createdOn":"2024-08-27T08:31:21.409Z","location":"boomq/teams/13/projects/15045/v_15149.yaml","comment":"","contentFormat":"yaml","contentModelVersion":"2.0.0","testType":"STABLE","requestCount":2,"totalDuration":420,"versionNumber":5},{"id":15151,"projectId":15045,"settingsId":null,"createdOn":"2024-08-27T08:37:32.177Z","location":"boomq/teams/13/projects/15045/v_15151.yaml","comment":"","contentFormat":"yaml","contentModelVersion":"2.0.0","testType":"STABLE","requestCount":2,"totalDuration":420,"versionNumber":6},{"id":25302,"projectId":15045,"settingsId":null,"createdOn":"2024-08-27T19:02:47.824Z","location":"boomq/teams/13/projects/15045/v_25302.yaml","comment":"","contentFormat":"yaml","contentModelVersion":"2.0.0","testType":"STABLE","requestCount":2,"totalDuration":420,"versionNumber":7},{"id":25304,"projectId":15045,"settingsId":null,"createdOn":"2024-08-27T21:00:21.436Z","location":"boomq/teams/13/projects/15045/v_25304.yaml","comment":"","contentFormat":"yaml","contentModelVersion":"2.0.0","testType":"STABLE","requestCount":2,"totalDuration":420,"versionNumber":8},{"id":25306,"projectId":15045,"settingsId":null,"createdOn":"2024-08-27T21:01:03.017Z","location":"boomq/teams/13/projects/15045/v_25306.yaml","comment":"","contentFormat":"yaml","contentModelVersion":"2.0.0","testType":"STABLE","requestCount":2,"totalDuration":420,"versionNumber":9},{"id":25308,"projectId":15045,"settingsId":null,"createdOn":"2024-08-27T21:06:26.808Z","location":"boomq/teams/13/projects/15045/v_25308.yaml","comment":"","contentFormat":"yaml","contentModelVersion":"2.0.0","testType":"STABLE","requestCount":2,"totalDuration":420,"versionNumber":10},{"id":25310,"projectId":15045,"settingsId":null,"createdOn":"2024-08-27T21:08:22.341Z","location":"boomq/teams/13/projects/15045/v_25310.yaml","comment":"","contentFormat":"yaml","contentModelVersion":"2.0.0","testType":"STABLE","requestCount":2,"totalDuration":420,"versionNumber":11}]},{"id":25109,"projectName":"test_00-08-19","settingsId":null,"comment":"","lastModified":"2024-08-27T21:08:22","contentFormat":"yaml","contentModelVersion":null,"labelSet":[],"testType":"STABLE","requestCount":2,"totalDuration":720,"version":[{"id":25309,"projectId":25109,"settingsId":null,"createdOn":"2024-08-27T21:08:22.135Z","location":"boomq/teams/13/projects/25109/v_25309.yaml","comment":"","contentFormat":"yaml","contentModelVersion":"2.0.0","testType":"STABLE","requestCount":2,"totalDuration":720,"versionNumber":1}]}],"pageable":{"sort":{"sorted":true,"unsorted":false,"empty":false},"offset":0,"pageNumber":0,"pageSize":9,"paged":true,"unpaged":false},"totalElements":29,"totalPages":4,"last":false,"first":true,"size":9,"number":0,"sort":{"sorted":true,"unsorted":false,"empty":false},"numberOfElements":9,"empty":false}