{"content":[{"id":31522,"projectName":"TestFromJMX_14-06-20","settingsId":null,"comment":"","lastModified":"2024-09-07T14:06:23","contentFormat":"yaml","contentModelVersion":null,"labelSet":[],"testType":"OWN_JMX","requestCount":0,"totalDuration":3610,"version":[{"id":34943,"projectId":31522,"settingsId":null,"createdOn":"2024-09-07T14:06:23.245Z","location":"boomq/teams/13/projects/31522/v_34943.yaml","comment":null,"contentFormat":"yaml","contentModelVersion":"1.0.0","testType":"OWN_JMX","requestCount":2,"totalDuration":3610,"versionNumber":1},{"id":34944,"projectId":31522,"settingsId":null,"createdOn":"2024-09-07T14:06:24.271Z","location":"boomq/teams/13/projects/31522/v_34944.yaml","comment":"","contentFormat":"yaml","contentModelVersion":"1.0.0","testType":"OWN_JMX","requestCount":0,"totalDuration":3610,"versionNumber":2}]},{"id":31521,"projectName":"testInApp_14-05-58","settingsId":null,"comment":"","lastModified":"2024-09-07T14:06:01","contentFormat":"yaml","contentModelVersion":null,"labelSet":[],"testType":"STABLE","requestCount":2,"totalDuration":3720,"version":[{"id":34942,"projectId":31521,"settingsId":null,"createdOn":"2024-09-07T14:06:01.787Z","location":"boomq/teams/13/projects/31521/v_34942.yaml","comment":"","contentFormat":"yaml","contentModelVersion":"2.0.0","testType":"STABLE","requestCount":2,"totalDuration":3720,"versionNumber":1}]},{"id":31126,"projectName":"TestFromJMX_16-34-59","settingsId":null,"comment":"","lastModified":"2024-09-06T16:35:01","contentFormat":"yaml","contentModelVersion":null,"labelSet":[],"testType":"OWN_JMX","requestCount":0,"totalDuration":3610,"version":[{"id":34226,"projectId":31126,"settingsId":null,"createdOn":"2024-09-06T16:35:01.583Z","location":"boomq/teams/13/projects/31126/v_34226.yaml","comment":null,"contentFormat":"yaml","contentModelVersion":"1.0.0","testType":"OWN_JMX","requestCount":2,"totalDuration":3610,"versionNumber":1},{"id":34227,"projectId":31126,"settingsId":null,"createdOn":"2024-09-06T16:35:02.126Z","location":"boomq/teams/13/projects/31126/v_34227.yaml","comment":"","contentFormat":"yaml","contentModelVersion":"1.0.0","testType":"OWN_JMX","requestCount":0,"totalDuration":3610,"versionNumber":2}]},{"id":31125,"projectName":"testInApp_16-34-49","settingsId":null,"comment":"","lastModified":"2024-09-06T16:34:51","contentFormat":"yaml","contentModelVersion":null,"labelSet":[],"testType":"STABLE","requestCount":2,"totalDuration":3600,"version":[{"id":34225,"projectId":31125,"settingsId":null,"createdOn":"2024-09-06T16:34:51.583Z","location":"boomq/teams/13/projects/31125/v_34225.yaml","comment":"","contentFormat":"yaml","contentModelVersion":"2.0.0","testType":"STABLE","requestCount":2,"totalDuration":3720,"versionNumber":1},{"id":34228,"projectId":31125,"settingsId":null,"createdOn":"2024-09-06T17:02:00.258Z","location":"boomq/teams/13/projects/31125/v_34228.yaml","comment":"","contentFormat":"yaml","contentModelVersion":"2.0.0","testType":"STABLE","requestCount":2,"totalDuration":3720,"versionNumber":2},{"id":34906,"projectId":31125,"settingsId":null,"createdOn":"2024-09-07T13:13:42.471Z","location":"boomq/teams/13/projects/31125/v_34906.yaml","comment":"","contentFormat":"yaml","contentModelVersion":"2.0.0","testType":"STABLE","requestCount":2,"totalDuration":3600,"versionNumber":3}]},{"id":31124,"projectName":"TestFromJMX_16-33-06","settingsId":null,"comment":"","lastModified":"2024-09-06T16:33:08","contentFormat":"yaml","contentModelVersion":null,"labelSet":[],"testType":"OWN_JMX","requestCount":0,"totalDuration":3610,"version":[{"id":34223,"projectId":31124,"settingsId":null,"createdOn":"2024-09-06T16:33:08.907Z","location":"boomq/teams/13/projects/31124/v_34223.yaml","comment":null,"contentFormat":"yaml","contentModelVersion":"1.0.0","testType":"OWN_JMX","requestCount":2,"totalDuration":3610,"versionNumber":1},{"id":34224,"projectId":31124,"settingsId":null,"createdOn":"2024-09-06T16:33:09.516Z","location":"boomq/teams/13/projects/31124/v_34224.yaml","comment":"","contentFormat":"yaml","contentModelVersion":"1.0.0","testType":"OWN_JMX","requestCount":0,"totalDuration":3610,"versionNumber":2}]},{"id":31123,"projectName":"testInApp_16-32-57","settingsId":null,"comment":"","lastModified":"2024-09-06T16:32:59","contentFormat":"yaml","contentModelVersion":null,"labelSet":[],"testType":"STABLE","requestCount":2,"totalDuration":3720,"version":[{"id":34222,"projectId":31123,"settingsId":null,"createdOn":"2024-09-06T16:32:59.386Z","location":"boomq/teams/13/projects/31123/v_34222.yaml","comment":"","contentFormat":"yaml","contentModelVersion":"2.0.0","testType":"STABLE","requestCount":2,"totalDuration":3720,"versionNumber":1}]},{"id":31122,"projectName":"TestFromJMX_16-31-14","settingsId":null,"comment":"","lastModified":"2024-09-06T16:31:16","contentFormat":"yaml","contentModelVersion":null,"labelSet":[],"testType":"OWN_JMX","requestCount":0,"totalDuration":3610,"version":[{"id":34220,"projectId":31122,"settingsId":null,"createdOn":"2024-09-06T16:31:16.487Z","location":"boomq/teams/13/projects/31122/v_34220.yaml","comment":null,"contentFormat":"yaml","contentModelVersion":"1.0.0","testType":"OWN_JMX","requestCount":2,"totalDuration":3610,"versionNumber":1},{"id":34221,"projectId":31122,"settingsId":null,"createdOn":"2024-09-06T16:31:17.008Z","location":"boomq/teams/13/projects/31122/v_34221.yaml","comment":"","contentFormat":"yaml","contentModelVersion":"1.0.0","testType":"OWN_JMX","requestCount":0,"totalDuration":3610,"versionNumber":2}]},{"id":31121,"projectName":"testInApp_16-31-04","settingsId":null,"comment":"","lastModified":"2024-09-06T16:31:06","contentFormat":"yaml","contentModelVersion":null,"labelSet":[],"testType":"STABLE","requestCount":2,"totalDuration":3720,"version":[{"id":34219,"projectId":31121,"settingsId":null,"createdOn":"2024-09-06T16:31:06.906Z","location":"boomq/teams/13/projects/31121/v_34219.yaml","comment":"","contentFormat":"yaml","contentModelVersion":"2.0.0","testType":"STABLE","requestCount":2,"totalDuration":3720,"versionNumber":1}]},{"id":31120,"projectName":"TestFromJMX_16-29-21","settingsId":null,"comment":"","lastModified":"2024-09-06T16:29:24","contentFormat":"yaml","contentModelVersion":null,"labelSet":[],"testType":"OWN_JMX","requestCount":0,"totalDuration":3610,"version":[{"id":34217,"projectId":31120,"settingsId":null,"createdOn":"2024-09-06T16:29:24.247Z","location":"boomq/teams/13/projects/31120/v_34217.yaml","comment":null,"contentFormat":"yaml","contentModelVersion":"1.0.0","testType":"OWN_JMX","requestCount":2,"totalDuration":3610,"versionNumber":1},{"id":34218,"projectId":31120,"settingsId":null,"createdOn":"2024-09-06T16:29:24.816Z","location":"boomq/teams/13/projects/31120/v_34218.yaml","comment":"","contentFormat":"yaml","contentModelVersion":"1.0.0","testType":"OWN_JMX","requestCount":0,"totalDuration":3610,"versionNumber":2}]}],"pageable":{"sort":{"sorted":true,"unsorted":false,"empty":false},"pageSize":9,"pageNumber":0,"offset":0,"paged":true,"unpaged":false},"totalElements":3867,"totalPages":430,"last":false,"first":true,"sort":{"sorted":true,"unsorted":false,"empty":false},"numberOfElements":9,"size":9,"number":0,"empty":false}