{"content":[{"id":21507,"testProjectId":30110,"testProjectVersionId":32732,"testMode":"TEST","state":"RUNNING","displayState":"RUNNING","userId":1875,"userEmail":"ko_lesya@mail.ru","teamId":13,"createDate":"2024-09-07T14:12:53.678Z","startDate":"2024-09-07T14:12:54.114Z","endDate":"2024-09-07T15:14:54.114Z","comment":"Amazing","labelSet":[],"testProject":{"id":30110,"projectName":"testInApp_08-00-51","settingsId":null,"comment":null,"lastModified":null,"contentFormat":null,"contentModelVersion":null,"labelSet":null,"testType":null,"requestCount":null,"totalDuration":null,"version":null},"testProjectVersion":{"id":32732,"projectId":30110,"settingsId":null,"createdOn":1725554850.813000000,"location":"boomq/teams/13/projects/30110/v_32732.yaml","comment":"","contentFormat":"yaml","contentModelVersion":"2.0.0","testType":"STABLE","requestCount":2,"totalDuration":3720,"versionNumber":6},"testResult":{"testId":21507,"usersChartSvg":null,"testResultSlaState":"PROCESSING","slaResults":null,"testResultFilesState":"PROCESSING"},"testError":null},{"id":21506,"testProjectId":31125,"testProjectVersionId":34906,"testMode":"TEST","state":"CANCELED","displayState":"CANCELED","userId":1875,"userEmail":"ko_lesya@mail.ru","teamId":13,"createDate":"2024-09-07T14:07:09.491Z","startDate":"2024-09-07T14:07:13.044Z","endDate":"2024-09-07T14:12:37.996Z","comment":"Amazing","labelSet":[],"testProject":{"id":31125,"projectName":"testInApp_16-34-49","settingsId":null,"comment":null,"lastModified":null,"contentFormat":null,"contentModelVersion":null,"labelSet":null,"testType":null,"requestCount":null,"totalDuration":null,"version":null},"testProjectVersion":{"id":34906,"projectId":31125,"settingsId":null,"createdOn":1725714822.471000000,"location":"boomq/teams/13/projects/31125/v_34906.yaml","comment":"","contentFormat":"yaml","contentModelVersion":"2.0.0","testType":"STABLE","requestCount":2,"totalDuration":3600,"versionNumber":3},"testResult":{"testId":21506,"usersChartSvg":"<svg xmlns=\"http://www.w3.org/2000/svg\" xmlns:xlink=\"http://www.w3.org/1999/xlink\" xmlns:jfreesvg=\"http://www.jfree.org/jfreesvg/svg\" width=\"150\" height=\"75\" text-rendering=\"auto\" shape-rendering=\"auto\">\n<defs><clipPath id=\"_20869831055171clip-0\"><path d=\"M 0 0 L 150 0 L 150 75 L 0 75 L 0 0 Z \"/></clipPath>\n<clipPath id=\"_20869831055171clip-1\"><path d=\"M 25 8 L 25 53 L 138 53 L 138 8 Z \"/></clipPath>\n</defs>\n<rect x=\"0\" y=\"0\" width=\"150\" height=\"75\" style=\"fill: rgb(255,255,255); fill-opacity: 1.0\" clip-path=\"url(#_20869831055171clip-0)\"/><rect x=\"25\" y=\"8\" width=\"113\" height=\"45\" style=\"fill: rgb(255,255,255); fill-opacity: 1.0\" clip-path=\"url(#_20869831055171clip-0)\"/><g ><text x=\"7\" y=\"69.11\" style=\"fill: rgb(0,0,0); fill-opacity: 1.0; font-family: sans-serif; font-size: 8px;\" clip-path=\"url(#_20869831055171clip-0)\">00:00:00</text></g><g ><text x=\"109.73\" y=\"69.11\" style=\"fill: rgb(0,0,0); fill-opacity: 1.0; font-family: sans-serif; font-size: 8px;\" clip-path=\"url(#_20869831055171clip-0)\">00:05:20</text></g><g ><text x=\"10\" y=\"56.11\" style=\"fill: rgb(0,0,0); fill-opacity: 1.0; font-family: sans-serif; font-size: 8px;\" clip-path=\"url(#_20869831055171clip-0)\">0</text></g><g ><text x=\"10\" y=\"13.26\" style=\"fill: rgb(0,0,0); fill-opacity: 1.0; font-family: sans-serif; font-size: 8px;\" clip-path=\"url(#_20869831055171clip-0)\">1</text></g><g style=\"stroke-width: 2.0;stroke: rgb(73,137,214);stroke-opacity: 1.0;stroke-linecap: square;shape-rendering:geometricPrecision;; fill: none\" clip-path=\"url(#_20869831055171clip-1)\"><path d=\"M 25 53 L 28.21 53 L 31.42 53 L 34.63 53 L 37.84 53 L 41.05 53 L 44.26 10.14 L 47.47 10.14 L 50.68 10.14 L 53.89 10.14 L 57.1 10.14 L 60.31 10.14 L 63.52 10.14 L 66.73 10.14 L 69.94 10.14 L 73.15 10.14 L 76.36 10.14 L 79.57 10.14 L 82.78 10.14 L 85.99 10.14 L 89.2 10.14 L 92.41 10.14 L 95.62 10.14 L 98.84 10.14 L 102.05 10.14 L 105.26 10.14 L 108.47 10.14 L 111.68 10.14 L 114.89 10.14 L 118.1 10.14 L 121.31 10.14 L 124.52 10.14 L 127.73 53\"/></g></svg>","testResultSlaState":"FINISHED","slaResults":{"slaGroupList":[{"type":"GENERAL_TEST_SLA","targetType":"TEST","slaList":[{"restrictionType":"AVERAGE","fromDate":0,"toDate":3720,"operation":"LESS_EQUALS","value":3.0,"result":0.03,"status":"SUCCESS"}]}],"status":"SUCCESS"},"testResultFilesState":"FINISHED"},"testError":null},{"id":21171,"testProjectId":31125,"testProjectVersionId":34228,"testMode":"TEST","state":"FAILED","displayState":"FAILED","userId":1871,"userEmail":"nataalex223@gmail.com","teamId":13,"createDate":"2024-09-06T17:04:47.598Z","startDate":"2024-09-06T17:04:48.383Z","endDate":"2024-09-06T17:14:08.155Z","comment":"","labelSet":[],"testProject":{"id":31125,"projectName":"testInApp_16-34-49","settingsId":null,"comment":null,"lastModified":null,"contentFormat":null,"contentModelVersion":null,"labelSet":null,"testType":null,"requestCount":null,"totalDuration":null,"version":null},"testProjectVersion":{"id":34228,"projectId":31125,"settingsId":null,"createdOn":1725642120.258000000,"location":"boomq/teams/13/projects/31125/v_34228.yaml","comment":"","contentFormat":"yaml","contentModelVersion":"2.0.0","testType":"STABLE","requestCount":2,"totalDuration":3720,"versionNumber":2},"testResult":{"testId":21171,"usersChartSvg":"<svg xmlns=\"http://www.w3.org/2000/svg\" xmlns:xlink=\"http://www.w3.org/1999/xlink\" xmlns:jfreesvg=\"http://www.jfree.org/jfreesvg/svg\" width=\"150\" height=\"75\" text-rendering=\"auto\" shape-rendering=\"auto\">\n<defs><clipPath id=\"_117216440338clip-0\"><path d=\"M 0 0 L 150 0 L 150 75 L 0 75 L 0 0 Z \"/></clipPath>\n<clipPath id=\"_117216440338clip-1\"><path d=\"M 25 8 L 25 53 L 138 53 L 138 8 Z \"/></clipPath>\n</defs>\n<rect x=\"0\" y=\"0\" width=\"150\" height=\"75\" style=\"fill: rgb(255,255,255); fill-opacity: 1.0\" clip-path=\"url(#_117216440338clip-0)\"/><rect x=\"25\" y=\"8\" width=\"113\" height=\"45\" style=\"fill: rgb(255,255,255); fill-opacity: 1.0\" clip-path=\"url(#_117216440338clip-0)\"/><g ><text x=\"7\" y=\"69.11\" style=\"fill: rgb(0,0,0); fill-opacity: 1.0; font-family: sans-serif; font-size: 8px;\" clip-path=\"url(#_117216440338clip-0)\">00:00:00</text></g><g ><text x=\"109.73\" y=\"69.11\" style=\"fill: rgb(0,0,0); fill-opacity: 1.0; font-family: sans-serif; font-size: 8px;\" clip-path=\"url(#_117216440338clip-0)\">00:09:20</text></g><g ><text x=\"10\" y=\"56.11\" style=\"fill: rgb(0,0,0); fill-opacity: 1.0; font-family: sans-serif; font-size: 8px;\" clip-path=\"url(#_117216440338clip-0)\">0</text></g><g ><text x=\"10\" y=\"13.26\" style=\"fill: rgb(0,0,0); fill-opacity: 1.0; font-family: sans-serif; font-size: 8px;\" clip-path=\"url(#_117216440338clip-0)\">1</text></g><g style=\"stroke-width: 2.0;stroke: rgb(73,137,214);stroke-opacity: 1.0;stroke-linecap: square;shape-rendering:geometricPrecision;; fill: none\" clip-path=\"url(#_117216440338clip-1)\"><path d=\"M 25 53 L 26.83 53 L 28.67 53 L 30.5 53 L 32.34 53 L 34.17 53 L 36.01 53 L 37.84 10.14 L 39.68 10.14 L 41.51 10.14 L 43.34 10.14 L 45.18 10.14 L 47.01 10.14 L 48.85 10.14 L 50.68 10.14 L 52.52 10.14 L 54.35 10.14 L 56.19 10.14 L 58.02 10.14 L 59.85 10.14 L 61.69 10.14 L 63.52 10.14 L 65.36 10.14 L 67.19 10.14 L 69.03 10.14 L 70.86 10.14 L 72.69 10.14 L 74.53 10.14 L 76.36 10.14 L 78.2 10.14 L 80.03 10.14 L 81.87 10.14 L 83.7 10.14 L 85.54 10.14 L 87.37 10.14 L 89.2 10.14 L 91.04 10.14 L 92.87 10.14 L 94.71 10.14 L 96.54 10.14 L 98.38 10.14 L 100.21 10.14 L 102.05 10.14 L 103.88 53 L 105.71 53 L 107.55 53 L 109.38 53 L 111.22 53 L 113.05 53 L 114.89 53 L 116.72 53 L 118.56 53 L 120.39 53 L 122.22 53 L 124.06 53 L 125.89 53 L 127.73 53\"/></g></svg>","testResultSlaState":"FAILED","slaResults":null,"testResultFilesState":"FINISHED"},"testError":{"exceptionMessageType":"DOCKER_CONTAINER_ERROR","exceptionDescription":"Docker container error","errorDate":"2024-09-06T17:14:07.725Z"}},{"id":21170,"testProjectId":31125,"testProjectVersionId":34228,"testMode":"TEST","state":"CANCELED","displayState":"CANCELED","userId":1871,"userEmail":"nataalex223@gmail.com","teamId":13,"createDate":"2024-09-06T17:02:00.360Z","startDate":"2024-09-06T17:02:02.861Z","endDate":"2024-09-06T17:02:33.160Z","comment":"","labelSet":[],"testProject":{"id":31125,"projectName":"testInApp_16-34-49","settingsId":null,"comment":null,"lastModified":null,"contentFormat":null,"contentModelVersion":null,"labelSet":null,"testType":null,"requestCount":null,"totalDuration":null,"version":null},"testProjectVersion":{"id":34228,"projectId":31125,"settingsId":null,"createdOn":1725642120.258000000,"location":"boomq/teams/13/projects/31125/v_34228.yaml","comment":"","contentFormat":"yaml","contentModelVersion":"2.0.0","testType":"STABLE","requestCount":2,"totalDuration":3720,"versionNumber":2},"testResult":{"testId":21170,"usersChartSvg":"<svg xmlns=\"http://www.w3.org/2000/svg\" xmlns:xlink=\"http://www.w3.org/1999/xlink\" xmlns:jfreesvg=\"http://www.jfree.org/jfreesvg/svg\" width=\"150\" height=\"75\" text-rendering=\"auto\" shape-rendering=\"auto\">\n<defs><clipPath id=\"_17863106262656clip-0\"><path d=\"M 0 0 L 150 0 L 150 75 L 0 75 L 0 0 Z \"/></clipPath>\n<clipPath id=\"_17863106262656clip-1\"><path d=\"M 12 8 L 12 53 L 138 53 L 138 8 Z \"/></clipPath>\n</defs>\n<rect x=\"0\" y=\"0\" width=\"150\" height=\"75\" style=\"fill: rgb(255,255,255); fill-opacity: 1.0\" clip-path=\"url(#_17863106262656clip-0)\"/><rect x=\"12\" y=\"8\" width=\"126\" height=\"45\" style=\"fill: rgb(255,255,255); fill-opacity: 1.0\" clip-path=\"url(#_17863106262656clip-0)\"/><g ><text x=\"-6\" y=\"69.11\" style=\"fill: rgb(0,0,0); fill-opacity: 1.0; font-family: sans-serif; font-size: 8px;\" clip-path=\"url(#_17863106262656clip-0)\">00:00:00</text></g><g ><text x=\"108.55\" y=\"69.11\" style=\"fill: rgb(0,0,0); fill-opacity: 1.0; font-family: sans-serif; font-size: 8px;\" clip-path=\"url(#_17863106262656clip-0)\">00:00:30</text></g><g style=\"stroke-width: 2.0;stroke: rgb(73,137,214);stroke-opacity: 1.0;stroke-linecap: square;shape-rendering:geometricPrecision;; fill: none\" clip-path=\"url(#_17863106262656clip-1)\"><path d=\"M 12 30.5 L 50.18 30.5 L 88.36 30.5 L 126.55 30.5\"/></g></svg>","testResultSlaState":"FINISHED","slaResults":{"slaGroupList":[{"type":"GENERAL_TEST_SLA","targetType":"TEST","slaList":[{"restrictionType":"AVERAGE","fromDate":0,"toDate":3720,"operation":"LESS_EQUALS","value":3.0,"result":null,"status":"NOT_COUNTED"}]}],"status":"FAILURE"},"testResultFilesState":"FINISHED"},"testError":null},{"id":21169,"testProjectId":30110,"testProjectVersionId":32732,"testMode":"TEST","state":"CANCELED","displayState":"CANCELED","userId":1873,"userEmail":"ravil.yunusov.94@gmail.com","teamId":13,"createDate":"2024-09-06T16:34:01.069Z","startDate":"2024-09-06T16:34:03.310Z","endDate":"2024-09-06T16:38:40.178Z","comment":"Amazing","labelSet":[],"testProject":{"id":30110,"projectName":"testInApp_08-00-51","settingsId":null,"comment":null,"lastModified":null,"contentFormat":null,"contentModelVersion":null,"labelSet":null,"testType":null,"requestCount":null,"totalDuration":null,"version":null},"testProjectVersion":{"id":32732,"projectId":30110,"settingsId":null,"createdOn":1725554850.813000000,"location":"boomq/teams/13/projects/30110/v_32732.yaml","comment":"","contentFormat":"yaml","contentModelVersion":"2.0.0","testType":"STABLE","requestCount":2,"totalDuration":3720,"versionNumber":6},"testResult":{"testId":21169,"usersChartSvg":"<svg xmlns=\"http://www.w3.org/2000/svg\" xmlns:xlink=\"http://www.w3.org/1999/xlink\" xmlns:jfreesvg=\"http://www.jfree.org/jfreesvg/svg\" width=\"150\" height=\"75\" text-rendering=\"auto\" shape-rendering=\"auto\">\n<defs><clipPath id=\"_16430310971824clip-0\"><path d=\"M 0 0 L 150 0 L 150 75 L 0 75 L 0 0 Z \"/></clipPath>\n<clipPath id=\"_16430310971824clip-1\"><path d=\"M 25 8 L 25 53 L 138 53 L 138 8 Z \"/></clipPath>\n</defs>\n<rect x=\"0\" y=\"0\" width=\"150\" height=\"75\" style=\"fill: rgb(255,255,255); fill-opacity: 1.0\" clip-path=\"url(#_16430310971824clip-0)\"/><rect x=\"25\" y=\"8\" width=\"113\" height=\"45\" style=\"fill: rgb(255,255,255); fill-opacity: 1.0\" clip-path=\"url(#_16430310971824clip-0)\"/><g ><text x=\"7\" y=\"69.11\" style=\"fill: rgb(0,0,0); fill-opacity: 1.0; font-family: sans-serif; font-size: 8px;\" clip-path=\"url(#_16430310971824clip-0)\">00:00:00</text></g><g ><text x=\"109.73\" y=\"69.11\" style=\"fill: rgb(0,0,0); fill-opacity: 1.0; font-family: sans-serif; font-size: 8px;\" clip-path=\"url(#_16430310971824clip-0)\">00:04:40</text></g><g ><text x=\"10\" y=\"56.11\" style=\"fill: rgb(0,0,0); fill-opacity: 1.0; font-family: sans-serif; font-size: 8px;\" clip-path=\"url(#_16430310971824clip-0)\">0</text></g><g ><text x=\"10\" y=\"13.26\" style=\"fill: rgb(0,0,0); fill-opacity: 1.0; font-family: sans-serif; font-size: 8px;\" clip-path=\"url(#_16430310971824clip-0)\">1</text></g><g style=\"stroke-width: 2.0;stroke: rgb(73,137,214);stroke-opacity: 1.0;stroke-linecap: square;shape-rendering:geometricPrecision;; fill: none\" clip-path=\"url(#_16430310971824clip-1)\"><path d=\"M 25 53 L 28.67 53 L 32.34 53 L 36.01 53 L 39.68 53 L 43.34 53 L 47.01 10.14 L 50.68 10.14 L 54.35 10.14 L 58.02 10.14 L 61.69 10.14 L 65.36 10.14 L 69.03 10.14 L 72.69 10.14 L 76.36 10.14 L 80.03 10.14 L 83.7 10.14 L 87.37 10.14 L 91.04 10.14 L 94.71 10.14 L 98.38 10.14 L 102.05 10.14 L 105.71 10.14 L 109.38 10.14 L 113.05 10.14 L 116.72 10.14 L 120.39 10.14 L 124.06 10.14 L 127.73 53\"/></g></svg>","testResultSlaState":"FINISHED","slaResults":{"slaGroupList":[{"type":"GENERAL_TEST_SLA","targetType":"TEST","slaList":[{"restrictionType":"AVERAGE","fromDate":0,"toDate":3720,"operation":"LESS_EQUALS","value":3.0,"result":0.04,"status":"SUCCESS"}]}],"status":"SUCCESS"},"testResultFilesState":"FINISHED"},"testError":null},{"id":21168,"testProjectId":30110,"testProjectVersionId":32732,"testMode":"TEST","state":"CANCELED","displayState":"CANCELED","userId":1873,"userEmail":"ravil.yunusov.94@gmail.com","teamId":13,"createDate":"2024-09-06T16:33:46.559Z","startDate":"2024-09-06T16:33:48.909Z","endDate":"2024-09-06T16:38:17.723Z","comment":"Amazing","labelSet":[],"testProject":{"id":30110,"projectName":"testInApp_08-00-51","settingsId":null,"comment":null,"lastModified":null,"contentFormat":null,"contentModelVersion":null,"labelSet":null,"testType":null,"requestCount":null,"totalDuration":null,"version":null},"testProjectVersion":{"id":32732,"projectId":30110,"settingsId":null,"createdOn":1725554850.813000000,"location":"boomq/teams/13/projects/30110/v_32732.yaml","comment":"","contentFormat":"yaml","contentModelVersion":"2.0.0","testType":"STABLE","requestCount":2,"totalDuration":3720,"versionNumber":6},"testResult":{"testId":21168,"usersChartSvg":"<svg xmlns=\"http://www.w3.org/2000/svg\" xmlns:xlink=\"http://www.w3.org/1999/xlink\" xmlns:jfreesvg=\"http://www.jfree.org/jfreesvg/svg\" width=\"150\" height=\"75\" text-rendering=\"auto\" shape-rendering=\"auto\">\n<defs><clipPath id=\"_16407842963454clip-0\"><path d=\"M 0 0 L 150 0 L 150 75 L 0 75 L 0 0 Z \"/></clipPath>\n<clipPath id=\"_16407842963454clip-1\"><path d=\"M 25 8 L 25 53 L 138 53 L 138 8 Z \"/></clipPath>\n</defs>\n<rect x=\"0\" y=\"0\" width=\"150\" height=\"75\" style=\"fill: rgb(255,255,255); fill-opacity: 1.0\" clip-path=\"url(#_16407842963454clip-0)\"/><rect x=\"25\" y=\"8\" width=\"113\" height=\"45\" style=\"fill: rgb(255,255,255); fill-opacity: 1.0\" clip-path=\"url(#_16407842963454clip-0)\"/><g ><text x=\"7\" y=\"69.11\" style=\"fill: rgb(0,0,0); fill-opacity: 1.0; font-family: sans-serif; font-size: 8px;\" clip-path=\"url(#_16407842963454clip-0)\">00:00:00</text></g><g ><text x=\"109.73\" y=\"69.11\" style=\"fill: rgb(0,0,0); fill-opacity: 1.0; font-family: sans-serif; font-size: 8px;\" clip-path=\"url(#_16407842963454clip-0)\">00:04:30</text></g><g ><text x=\"10\" y=\"56.11\" style=\"fill: rgb(0,0,0); fill-opacity: 1.0; font-family: sans-serif; font-size: 8px;\" clip-path=\"url(#_16407842963454clip-0)\">0</text></g><g ><text x=\"10\" y=\"13.26\" style=\"fill: rgb(0,0,0); fill-opacity: 1.0; font-family: sans-serif; font-size: 8px;\" clip-path=\"url(#_16407842963454clip-0)\">1</text></g><g style=\"stroke-width: 2.0;stroke: rgb(73,137,214);stroke-opacity: 1.0;stroke-linecap: square;shape-rendering:geometricPrecision;; fill: none\" clip-path=\"url(#_16407842963454clip-1)\"><path d=\"M 25 53 L 28.8 53 L 32.61 53 L 36.41 53 L 40.22 53 L 44.02 53 L 47.83 53 L 51.63 10.14 L 55.44 10.14 L 59.24 10.14 L 63.05 10.14 L 66.85 10.14 L 70.66 10.14 L 74.46 10.14 L 78.27 10.14 L 82.07 10.14 L 85.88 10.14 L 89.68 10.14 L 93.48 10.14 L 97.29 10.14 L 101.09 10.14 L 104.9 10.14 L 108.7 10.14 L 112.51 10.14 L 116.31 10.14 L 120.12 10.14 L 123.92 10.14 L 127.73 53\"/></g></svg>","testResultSlaState":"FINISHED","slaResults":{"slaGroupList":[{"type":"GENERAL_TEST_SLA","targetType":"TEST","slaList":[{"restrictionType":"AVERAGE","fromDate":0,"toDate":3720,"operation":"LESS_EQUALS","value":3.0,"result":0.03,"status":"SUCCESS"}]}],"status":"SUCCESS"},"testResultFilesState":"FINISHED"},"testError":null},{"id":21167,"testProjectId":30110,"testProjectVersionId":32732,"testMode":"TEST","state":"CANCELED","displayState":"CANCELED","userId":1873,"userEmail":"ravil.yunusov.94@gmail.com","teamId":13,"createDate":"2024-09-06T16:33:31.187Z","startDate":"2024-09-06T16:33:33.492Z","endDate":"2024-09-06T16:38:18.333Z","comment":"Amazing","labelSet":[],"testProject":{"id":30110,"projectName":"testInApp_08-00-51","settingsId":null,"comment":null,"lastModified":null,"contentFormat":null,"contentModelVersion":null,"labelSet":null,"testType":null,"requestCount":null,"totalDuration":null,"version":null},"testProjectVersion":{"id":32732,"projectId":30110,"settingsId":null,"createdOn":1725554850.813000000,"location":"boomq/teams/13/projects/30110/v_32732.yaml","comment":"","contentFormat":"yaml","contentModelVersion":"2.0.0","testType":"STABLE","requestCount":2,"totalDuration":3720,"versionNumber":6},"testResult":{"testId":21167,"usersChartSvg":"<svg xmlns=\"http://www.w3.org/2000/svg\" xmlns:xlink=\"http://www.w3.org/1999/xlink\" xmlns:jfreesvg=\"http://www.jfree.org/jfreesvg/svg\" width=\"150\" height=\"75\" text-rendering=\"auto\" shape-rendering=\"auto\">\n<defs><clipPath id=\"_16408494074023clip-0\"><path d=\"M 0 0 L 150 0 L 150 75 L 0 75 L 0 0 Z \"/></clipPath>\n<clipPath id=\"_16408494074023clip-1\"><path d=\"M 25 8 L 25 53 L 138 53 L 138 8 Z \"/></clipPath>\n</defs>\n<rect x=\"0\" y=\"0\" width=\"150\" height=\"75\" style=\"fill: rgb(255,255,255); fill-opacity: 1.0\" clip-path=\"url(#_16408494074023clip-0)\"/><rect x=\"25\" y=\"8\" width=\"113\" height=\"45\" style=\"fill: rgb(255,255,255); fill-opacity: 1.0\" clip-path=\"url(#_16408494074023clip-0)\"/><g ><text x=\"7\" y=\"69.11\" style=\"fill: rgb(0,0,0); fill-opacity: 1.0; font-family: sans-serif; font-size: 8px;\" clip-path=\"url(#_16408494074023clip-0)\">00:00:00</text></g><g ><text x=\"109.73\" y=\"69.11\" style=\"fill: rgb(0,0,0); fill-opacity: 1.0; font-family: sans-serif; font-size: 8px;\" clip-path=\"url(#_16408494074023clip-0)\">00:04:40</text></g><g ><text x=\"10\" y=\"56.11\" style=\"fill: rgb(0,0,0); fill-opacity: 1.0; font-family: sans-serif; font-size: 8px;\" clip-path=\"url(#_16408494074023clip-0)\">0</text></g><g ><text x=\"10\" y=\"13.26\" style=\"fill: rgb(0,0,0); fill-opacity: 1.0; font-family: sans-serif; font-size: 8px;\" clip-path=\"url(#_16408494074023clip-0)\">1</text></g><g style=\"stroke-width: 2.0;stroke: rgb(73,137,214);stroke-opacity: 1.0;stroke-linecap: square;shape-rendering:geometricPrecision;; fill: none\" clip-path=\"url(#_16408494074023clip-1)\"><path d=\"M 25 53 L 28.67 53 L 32.34 53 L 36.01 53 L 39.68 53 L 43.34 53 L 47.01 10.14 L 50.68 10.14 L 54.35 10.14 L 58.02 10.14 L 61.69 10.14 L 65.36 10.14 L 69.03 10.14 L 72.69 10.14 L 76.36 10.14 L 80.03 10.14 L 83.7 10.14 L 87.37 10.14 L 91.04 10.14 L 94.71 10.14 L 98.38 10.14 L 102.05 10.14 L 105.71 10.14 L 109.38 10.14 L 113.05 10.14 L 116.72 10.14 L 120.39 10.14 L 124.06 10.14 L 127.73 53\"/></g></svg>","testResultSlaState":"FINISHED","slaResults":{"slaGroupList":[{"type":"GENERAL_TEST_SLA","targetType":"TEST","slaList":[{"restrictionType":"AVERAGE","fromDate":0,"toDate":3720,"operation":"LESS_EQUALS","value":3.0,"result":0.03,"status":"SUCCESS"}]}],"status":"SUCCESS"},"testResultFilesState":"FINISHED"},"testError":null}],"pageable":{"sort":{"unsorted":false,"sorted":true,"empty":false},"pageNumber":0,"pageSize":7,"offset":0,"paged":true,"unpaged":false},"totalElements":870,"totalPages":125,"last":false,"first":true,"sort":{"unsorted":false,"sorted":true,"empty":false},"numberOfElements":7,"size":7,"number":0,"empty":false}